{
    "keyspaces": [
        "wxgrid_long_lived_v2",
        "soil_model_v4",
        "soil_model_v5"
    ],
    "regions": {
        "eu":"braavos",
        "us":"pyke"
    },
    "cass_nodes": {
        "braavos": [
    		"cassa-c1-euw1a-00.braavos.meridian-enviro.com",
            "cassa-c1-euw1b-00.braavos.meridian-enviro.com",
			"cassa-c1-euw1c-00.braavos.meridian-enviro.com",
            "cassa-c1-euw1a-01.braavos.meridian-enviro.com",
            "cassa-c1-euw1b-01.braavos.meridian-enviro.com",
            "cassa-c1-euw1c-01.braavos.meridian-enviro.com",
			"cassa-c1-euw1a-02.braavos.meridian-enviro.com",
            "cassa-c1-euw1b-02.braavos.meridian-enviro.com",
			"cassa-c1-euw1c-02.braavos.meridian-enviro.com",
            "cassa-c1-euw1a-03.braavos.meridian-enviro.com",
			"cassa-c1-euw1b-03.braavos.meridian-enviro.com",
            "cassa-c1-euw1c-03.braavos.meridian-enviro.com"
        ],
        "pyke": [
			"cassa-e1a-00.pyke.meridian-enviro.com",
            "cassa-e1a-01.pyke.meridian-enviro.com",
            "cassa-e1a-02.pyke.meridian-enviro.com",
			"cassa-e1a-03.pyke.meridian-enviro.com",
            "cassa-e1a-04.pyke.meridian-enviro.com",
            "cassa-e1a-05.pyke.meridian-enviro.com",
			"cassa-e1a-06.pyke.meridian-enviro.com",
            "cassa-e1a-07.pyke.meridian-enviro.com",
            "cassa-e1d-00.pyke.meridian-enviro.com",
			"cassa-e1d-01.pyke.meridian-enviro.com",
            "cassa-e1d-02.pyke.meridian-enviro.com",
            "cassa-e1d-03.pyke.meridian-enviro.com",
			"cassa-e1d-04.pyke.meridian-enviro.com",
            "cassa-e1d-05.pyke.meridian-enviro.com",
            "cassa-e1d-06.pyke.meridian-enviro.com",
			"cassa-e1d-07.pyke.meridian-enviro.com",
            "cassa-e1b-00.pyke.meridian-enviro.com",
            "cassa-e1b-01.pyke.meridian-enviro.com",
			"cassa-e1b-02.pyke.meridian-enviro.com",
            "cassa-e1b-03.pyke.meridian-enviro.com",
            "cassa-e1b-04.pyke.meridian-enviro.com",
			"cassa-e1b-05.pyke.meridian-enviro.com",
            "cassa-e1b-06.pyke.meridian-enviro.com",
            "cassa-e1b-07.pyke.meridian-enviro.com"
        ],
        "qarth": [
			"cassa-c1-e1b-00.qarth",
            "cassa-c1-e1c-00.qarth",
            "cassa-c1-e1d-00.qarth"
        ]
    }
}
